<svg width="54" height="54" viewBox="0 0 54 54" fill="none" xmlns="http://www.w3.org/2000/svg">
<path d="M35.5124 5.7902C36.0685 5.7902 36.5194 5.33935 36.5194 4.78321C36.5194 4.22706 36.0685 3.77621 35.5124 3.77621C34.9562 3.77621 34.5054 4.22706 34.5054 4.78321C34.5054 5.33935 34.9562 5.7902 35.5124 5.7902Z" fill="black"/>
<path d="M23.4284 5.7902C23.9845 5.7902 24.4354 5.33935 24.4354 4.78321C24.4354 4.22706 23.9845 3.77621 23.4284 3.77621C22.8722 3.77621 22.4214 4.22706 22.4214 4.78321C22.4214 5.33935 22.8722 5.7902 23.4284 5.7902Z" fill="black"/>
<path d="M31.4845 5.7902C32.0407 5.7902 32.4915 5.33935 32.4915 4.78321C32.4915 4.22706 32.0407 3.77621 31.4845 3.77621C30.9284 3.77621 30.4775 4.22706 30.4775 4.78321C30.4775 5.33935 30.9284 5.7902 31.4845 5.7902Z" fill="black"/>
<path d="M27.4567 5.7902C28.0129 5.7902 28.4637 5.33935 28.4637 4.78321C28.4637 4.22706 28.0129 3.77621 27.4567 3.77621C26.9006 3.77621 26.4497 4.22706 26.4497 4.78321C26.4497 5.33935 26.9006 5.7902 27.4567 5.7902Z" fill="black"/>
<path d="M19.4005 5.7902C19.9567 5.7902 20.4075 5.33935 20.4075 4.78321C20.4075 4.22706 19.9567 3.77621 19.4005 3.77621C18.8444 3.77621 18.3936 4.22706 18.3936 4.78321C18.3936 5.33935 18.8444 5.7902 19.4005 5.7902Z" fill="black"/>
<path d="M40.3115 12.965V21.7762C40.3115 22.3325 40.7624 22.7832 41.3185 22.7832H47.1402C47.6963 22.7832 48.1472 22.3325 48.1472 21.7762V12.965C48.1472 12.4088 47.6963 11.958 47.1402 11.958H41.3185C40.7624 11.958 40.3115 12.4088 40.3115 12.965ZM42.3255 13.972H46.1332V20.7692H42.3255V13.972Z" fill="black"/>
<path d="M41.3185 41.6643H47.1402C47.6963 41.6643 48.1472 41.2135 48.1472 40.6574V31.8462C48.1472 31.2899 47.6963 30.8392 47.1402 30.8392H41.3185C40.7624 30.8392 40.3115 31.2899 40.3115 31.8462V40.6574C40.3115 41.2135 40.7624 41.6643 41.3185 41.6643ZM42.3255 32.8532H46.1332V39.6504H42.3255V32.8532Z" fill="black"/>
<path d="M35.6539 11.958H29.8322C29.2761 11.958 28.8252 12.4088 28.8252 12.965V21.7762C28.8252 22.3325 29.2761 22.7832 29.8322 22.7832H35.6539C36.21 22.7832 36.6609 22.3325 36.6609 21.7762V12.965C36.6609 12.4088 36.21 11.958 35.6539 11.958ZM34.6469 20.7692H30.8392V13.972H34.6469V20.7692Z" fill="black"/>
<path d="M52.175 4.15385H40.6261V1.00699C40.6261 0.450629 40.1754 0 39.6191 0H15.2939C14.7375 0 14.2869 0.450629 14.2869 1.00699V4.15385H1.82535C1.26899 4.15385 0.818359 4.60448 0.818359 5.16084V52.993C0.818359 53.5494 1.26899 54 1.82535 54H52.175C52.7314 54 53.182 53.5494 53.182 52.993V5.16084C53.182 4.60448 52.7314 4.15385 52.175 4.15385ZM16.3009 2.01399H38.6121V7.55245H16.3009V2.01399ZM16.2379 51.986H2.83235V46.1958H16.2379V51.986ZM25.9932 51.986H18.2519V41.2521C18.2519 36.7892 21.649 33.1048 25.9932 32.6489V51.986ZM35.7484 51.986H28.0072V32.6489C32.3513 33.1049 35.7484 36.7892 35.7484 41.2521V51.986ZM51.168 51.986H37.7624V46.1958H51.168V51.986ZM51.168 44.1818H37.7624V41.2521C37.7624 35.3715 32.9782 30.5874 27.0977 30.5874H27.0002H26.9026C21.022 30.5874 16.2379 35.3715 16.2379 41.2521V44.1818H2.83235V27.5664H51.168V44.1818ZM51.168 25.5524H2.83235V6.16783H14.2869V8.55944C14.2869 9.11568 14.7376 9.56643 15.2939 9.56643H39.6191C40.1752 9.56643 40.6261 9.11568 40.6261 8.55944V6.16783H51.168V25.5524Z" fill="black"/>
<path d="M24.168 11.958H18.3463C17.7901 11.958 17.3394 12.4088 17.3394 12.965V21.7762C17.3394 22.3325 17.7901 22.7832 18.3463 22.7832H24.168C24.7241 22.7832 25.175 22.3325 25.175 21.7762V12.965C25.175 12.4088 24.7241 11.958 24.168 11.958ZM23.161 20.7692H19.3533V13.972H23.161V20.7692Z" fill="black"/>
<path d="M6.86051 41.6643H12.6822C13.2383 41.6643 13.6892 41.2135 13.6892 40.6574V31.8462C13.6892 31.2899 13.2383 30.8392 12.6822 30.8392H6.86051C6.30427 30.8392 5.85352 31.2899 5.85352 31.8462V40.6574C5.85352 41.2135 6.30427 41.6643 6.86051 41.6643ZM7.8675 32.8532H11.6752V39.6504H7.8675V32.8532Z" fill="black"/>
<path d="M12.6822 11.958H6.86051C6.30427 11.958 5.85352 12.4088 5.85352 12.965V21.7762C5.85352 22.3325 6.30427 22.7832 6.86051 22.7832H12.6822C13.2383 22.7832 13.6892 22.3325 13.6892 21.7762V12.965C13.6892 12.4088 13.2383 11.958 12.6822 11.958ZM11.6752 20.7692H7.8675V13.972H11.6752V20.7692Z" fill="black"/>
</svg>
